{
    "id": 1,
    "title": "Address",
    "link": null,
    "icon": "phone_book",
    "description": "Manage your billing and shipping address",
    "primary_color": "00aff0",
    "secondary_color": "#00000"
  }